{
    "page": 1,
    "total_results": 402,
    "total_pages": 21,
    "results": [
      {
        "vote_count": 87,
        "id": 25602,
        "video": false,
        "vote_average": 5.4,
        "title": "Ninja",
        "popularity": 7.293151,
        "poster_path": "/nKHfHW1NP0ob33mu03tg0N0S2rj.jpg",
        "original_language": "en",
        "original_title": "Ninja",
        "genre_ids": [
          28,
          80,
          18,
          53
        ],
        "backdrop_path": "/nBDAxa6qoYczjYuZf3RctzVnpxT.jpg",
        "adult": false,
        "overview": "Casey é um ninja americano que estuda Ninjutsu no Japão. A pedido do Sensei, ele retorna aos Estados Unidos para proteger o legendário Yoroi Bitsu, uma caixa blindada que contém as armas do último Koga Ninja. Ele conta com poderes lendários para garatir a segurança do arsenal e derrotar os assassinos de Yakuza, que estão tentando alcançá-lo.",
        "release_date": "2009-10-22"
      },
      {
        "vote_count": 2707,
        "id": 98566,
        "video": false,
        "vote_average": 5.8,
        "title": "Tartarugas Ninja: Heróis Mutantes",
        "popularity": 25.829872,
        "poster_path": "/r1eulDLp9DGcMpCelA7aaxCUjOM.jpg",
        "original_language": "en",
        "original_title": "Teenage Mutant Ninja Turtles",
        "genre_ids": [
          878,
          28,
          12,
          14,
          35
        ],
        "backdrop_path": "/OqCXGt5nl1cHPeotxCDvXLLe6p.jpg",
        "adult": false,
        "overview": "Afetados por uma substância radioativa, um grupo de tartarugas cresce anormalmente, ganha força e conhecimento. Vivendo nos esgotos de Manhattan, quatro jovens tartarugas, treinadas na arte de kung-fu, Leonardo, Rafael, Michelangelo e Donatello, junto com seu sensei, Mestre Splinter, tem que enfrentar o mal que habita cidade.",
        "release_date": "2014-08-07"
      },
      {
        "vote_count": 385,
        "id": 22832,
        "video": false,
        "vote_average": 6.2,
        "title": "Ninja Assassino",
        "popularity": 10.889902,
        "poster_path": "/1u0IaH9lkecWBo0rmhEn1T2lgG4.jpg",
        "original_language": "en",
        "original_title": "Ninja Assassin",
        "genre_ids": [
          28,
          80,
          53
        ],
        "backdrop_path": "/kmKZVgUPqf9v4c0UitSZlDM3RPv.jpg",
        "adult": false,
        "overview": "Os realizadores de Matrix e V de Vingança trazem sangue novo (e em grande quantidade!) aos filmes de artes marciais em Ninja Assassino. O pop star coreano Rain estrela esta aventura como o heróico e mortal Raizo. Treinado desde pequeno no estilo ninja do Clã Ozunu, ele é perseguido por seus companheiros por querer libertar-se dos desígnios do patriarca do dojo (Sho Kosugi, uma verdadeira lenda no gênero artes marciais)... Ao seu lado está uma agente da Europol (Naomie Harris), que tem provas que o clã presta serviços assassinando pessoas a mando do governo. A ação segue do começo ao fim - rápida, feroz e repleta de armas mortais (como correntes, espadas e shurikens) - e incrivelmente coreografada. Mas não tema a arma, e sim a mão que a empunha.",
        "release_date": "2009-09-29"
      },
      {
        "vote_count": 71,
        "id": 12500,
        "video": false,
        "vote_average": 5.5,
        "title": "American Ninja",
        "popularity": 8.348437,
        "poster_path": "/98ah5p1PBHmqI8O3F2cdE0oxbQq.jpg",
        "original_language": "en",
        "original_title": "American Ninja",
        "genre_ids": [
          28,
          12
        ],
        "backdrop_path": "/6Ww6MSZCYR1NqhIlgvomTnFdXjn.jpg",
        "adult": false,
        "overview": "Servindo nas Filipinas, o soldado americano Joe Armstrong, participa da escolta de um comboio de suprimentos quando este é emboscado por rebeldes. Ao reconhecer um destes rebeldes como um guerreiro ninja negro instintivamente, Joe, se defende utilizando a esotérica arte marcial do Ninjitsu, uma habilidade que o torna suspeito do ponto de vista de seu comandante e de seus colegas soldados. Sozinho em sua luta contra a corrupção, o rapaz finalmente descobre o segredo de seu misterioso passado. Um segredo que o coloca frente a frente com o terrível Ninja Estrela Negra, na mais decisiva das batalhas das artes marciais.",
        "release_date": "1985-08-30"
      },
      {
        "vote_count": 174,
        "id": 9622,
        "video": false,
        "vote_average": 5.4,
        "title": "Um Ninja da Pesada",
        "popularity": 13.416755,
        "poster_path": "/sPHKhtkvO1i4a7GS97ERIbbJRZX.jpg",
        "original_language": "en",
        "original_title": "Beverly Hills Ninja",
        "genre_ids": [
          28,
          35
        ],
        "backdrop_path": "/6T81a9Jz32xyoOzNnfGE2evrgRf.jpg",
        "adult": false,
        "overview": "Chris Farley, Nicolle Sheridon, Chris Rock e robin Shou estrelam nesta cômica colisão de culturas sobre um Ninja sem nenhum talento determinado a salvar uma misteriosa donzela em perigo. Farley estrela com Haru, um americano orfão que é carregado pelo mar até uma praia do Japão e confundido com o lendário Grande Ninja Branco. Criado entre os mais experientes Ninjas, haru cresce forte e grande-muito grande. Com a graça de todos os Três Patetas em um só corpo, Haru é uma vergonha para seu clã. Mas quando uma bela loira pede sua ajuda, haru tem uma perigosa e desastrosamente engraçada chance de provar sua capacidade.",
        "release_date": "1997-01-17"
      },
      {
        "vote_count": 486,
        "id": 1498,
        "video": false,
        "vote_average": 6.5,
        "title": "As Tartarugas Ninja",
        "popularity": 13.086757,
        "poster_path": "/5h7zXJ29yhOB5AqL1A5r8PkEYkf.jpg",
        "original_language": "en",
        "original_title": "Teenage Mutant Ninja Turtles",
        "genre_ids": [
          878,
          28,
          12,
          35,
          10751
        ],
        "backdrop_path": "/v4jw4Vu87A3bDq0UoZPShteABIY.jpg",
        "adult": false,
        "overview": "Depois de ser atacada por trombadinhas, a repórter April O'Neil é salva por tartarugas mutantes, que passaram a se dedicar a combater o crime desde que foram contaminadas por uma substância radioativa nos esgotos de Nova York, tornando-se guerreiros após serem treinados pelo mestre Splinter. Aliadas a Casey Jones, elas combatem a organização Foot, que lança uma onda de crimes na cidade sob o comando do perigoso Demolidor.",
        "release_date": "1990-03-30"
      },
      {
        "vote_count": 186,
        "id": 1499,
        "video": false,
        "vote_average": 5.1,
        "title": "As Tartarugas Ninja III",
        "popularity": 11.906141,
        "poster_path": "/bdB2PPDwJaboAYmN5DvsoociqOb.jpg",
        "original_language": "en",
        "original_title": "Teenage Mutant Ninja Turtles III",
        "genre_ids": [
          28,
          12,
          35,
          10751,
          14,
          878
        ],
        "backdrop_path": "/3Ws5ePyLJDLamVzWnkCM6kPBbgh.jpg",
        "adult": false,
        "overview": "Um cetro mágico comprado pela jornalista April O'Neill (Paige Turco) acidentalmente a transporta a para o Japão do século XVII. As Tartarugas Ninja também viajam no tempo, no intuito de salvá-la, mas Michelangelo (David Fraser) se perde do grupo. Para reencontrá-lo e salvar April, Donatello (Jim Raposa), Raphael (Matt Hill) e Leonardo (Mark Caso) precisam ajudar uma vila a enfrentar o malvado Lorde Norinaga (Sab Shimone).",
        "release_date": "1993-03-17"
      },
      {
        "vote_count": 15,
        "id": 19829,
        "video": false,
        "vote_average": 3.6,
        "title": "Ninja Cheerleaders",
        "popularity": 4.085621,
        "poster_path": "/38me0PMQ3LkTarMeu6vRYxD9r9z.jpg",
        "original_language": "en",
        "original_title": "Ninja Cheerleaders",
        "genre_ids": [
          28,
          35
        ],
        "backdrop_path": "/vXw8ShlEgTpJadOFxUgrZZYeiiy.jpg",
        "adult": false,
        "overview": "",
        "release_date": "2008-05-10"
      },
      {
        "vote_count": 22,
        "id": 17386,
        "video": false,
        "vote_average": 5.8,
        "title": "Revenge of the Ninja",
        "popularity": 7.263727,
        "poster_path": "/hhVQongUUKCSwZG0RqVIRKVnYVE.jpg",
        "original_language": "en",
        "original_title": "Revenge of the Ninja",
        "genre_ids": [
          28,
          80,
          18,
          53
        ],
        "backdrop_path": "/hfle11Mu8akVALMsMyUwN4y39Bp.jpg",
        "adult": false,
        "overview": "",
        "release_date": "1983-09-07"
      },
      {
        "vote_count": 2,
        "id": 331443,
        "video": false,
        "vote_average": 3.8,
        "title": "Ninja Party",
        "popularity": 3.354668,
        "poster_path": "/n0H2m5NYzDUYPcmu8wd36OS1nw8.jpg",
        "original_language": "en",
        "original_title": "Ninja Party",
        "genre_ids": [
          35,
          18
        ],
        "backdrop_path": "/11MLjWTKOVpBqX6JL8QnbFlgjsj.jpg",
        "adult": false,
        "overview": "",
        "release_date": "2015-03-18"
      },
      {
        "vote_count": 11,
        "id": 283749,
        "video": false,
        "vote_average": 4,
        "title": "Ninja Apocalypse",
        "popularity": 3.333038,
        "poster_path": "/zGI3MrKjlEr4zgB0Rz43rdqduDs.jpg",
        "original_language": "en",
        "original_title": "Ninja Apocalypse",
        "genre_ids": [
          27,
          28,
          14,
          878
        ],
        "backdrop_path": "/jCi0Gsqn7CVPOKswoA3Ywntvq2H.jpg",
        "adult": false,
        "overview": "",
        "release_date": "2014-08-05"
      },
      {
        "vote_count": 94,
        "id": 180894,
        "video": false,
        "vote_average": 5.9,
        "title": "Ninja 2 - A Vingança",
        "popularity": 8.641086,
        "poster_path": "/k5uuo4mvWHb80ePDZylN2xvcz7h.jpg",
        "original_language": "en",
        "original_title": "Ninja: Shadow of a Tear",
        "genre_ids": [
          28,
          80,
          53
        ],
        "backdrop_path": "/qkhjHfXxZKD317GeifrepN9YJSt.jpg",
        "adult": false,
        "overview": "O lutador de artes marciais Casey (Scott Adkins), busca vingança após o assassinato de sua mulher,  Namiko Takeda (Mika Hijii), que estava Grávida  do seu  primeiro filho.",
        "release_date": "2013-12-27"
      },
      {
        "vote_count": 10,
        "id": 52009,
        "video": false,
        "vote_average": 3.8,
        "title": "Kommandør Treholt & ninjatroppen",
        "popularity": 3.027516,
        "poster_path": "/75S4DiP50raVOapldaI1NLVZ6C0.jpg",
        "original_language": "en",
        "original_title": "Kommandør Treholt & ninjatroppen",
        "genre_ids": [
          18,
          28,
          35,
          53
        ],
        "backdrop_path": "/lLVpQghMpNOQyyyMH6yhWKD5a2z.jpg",
        "adult": false,
        "overview": "",
        "release_date": "2010-08-13"
      },
      {
        "vote_count": 125,
        "id": 14282,
        "video": false,
        "vote_average": 7.3,
        "title": "Ninja Scroll",
        "popularity": 10.371285,
        "poster_path": "/s2uZIa9ZrdKxJnpyiS83YDxwk5.jpg",
        "original_language": "ja",
        "original_title": "獣兵衛忍風帖",
        "genre_ids": [
          28,
          16,
          14
        ],
        "backdrop_path": "/lzMUucaNvgfWAUU7JxscKPeJLOq.jpg",
        "adult": false,
        "overview": "",
        "release_date": "1993-06-05"
      },
      {
        "vote_count": 101,
        "id": 16314,
        "video": false,
        "vote_average": 5.5,
        "title": "3 Ninjas",
        "popularity": 8.556047,
        "poster_path": "/lvfgYcK0dpgwCuRX4mTqc1Yg3yF.jpg",
        "original_language": "en",
        "original_title": "3 Ninjas",
        "genre_ids": [
          28,
          12,
          35,
          10751
        ],
        "backdrop_path": "/yZjbReSRgTGf5IZPmwpecPgm1Z1.jpg",
        "adult": false,
        "overview": "",
        "release_date": "1992-08-07"
      },
      {
        "vote_count": 994,
        "id": 308531,
        "video": false,
        "vote_average": 5.8,
        "title": "Tartarugas Ninja Heróis Mutantes: O Romper das Sombras",
        "popularity": 19.690507,
        "poster_path": "/m3dIZ0ndMWcjDnddeEqpuny1igt.jpg",
        "original_language": "en",
        "original_title": "Teenage Mutant Ninja Turtles: Out of the Shadows",
        "genre_ids": [
          14,
          28,
          12,
          35
        ],
        "backdrop_path": "/999RuhZvog8ocyvcccVV9yGmMjL.jpg",
        "adult": false,
        "overview": "Miguel Ângelo, Donatello, Leonardo e Rafael regressam este verão aos cinemas para enfrentar vilões ainda mais temíveis, juntamente com April O’Neil (Megan Fox), Vern Fenwick (Will Arnett) e um novo personagem: o vigilante da máscara de hóquei, Casey Jones (Stephen Amell). Depois de ter escapado da prisão, o super-vilão Shredder vai unir-se ao cientista louco Baxter Stockman (Tyler Perry) e dois capangas idiotas, Bebop (Gary Anthony Williams) e Rocksteady (a superestrela da WWE Stephen “Sheamus” Farrelly), para desencadear um plano diabólico e dominar mundo. Enquanto as Tartarugas se preparam para combater Shredder e a sua nova equipa, deparam-se com uma ameaça ainda maior: o célebre Krang.",
        "release_date": "2016-06-01"
      },
      {
        "vote_count": 347,
        "id": 1273,
        "video": false,
        "vote_average": 6,
        "title": "As Tartarugas Ninja - O Retorno",
        "popularity": 10.136213,
        "poster_path": "/4hGzZ2DAjdu6IjHT7dGfiVatHEu.jpg",
        "original_language": "en",
        "original_title": "TMNT",
        "genre_ids": [
          12,
          16,
          35,
          10751
        ],
        "backdrop_path": "/jDzE7aMeuBXwVhAxb88GUtDyZPf.jpg",
        "adult": false,
        "overview": "Estranhos acontecimentos tomam Nova York. Leonardo e o Mestre Splinter resolvem ir atrás de Raphael, Donatello e Michelangelo para reagrupar as Tartarugas Ninja. Versão animada baseada na série de TV e nos três filmes lançados sobre as adolescentes tartarugas ninja que vivem nos esgotos de Nova York.",
        "release_date": "2007-03-23"
      },
      {
        "vote_count": 8,
        "id": 31297,
        "video": false,
        "vote_average": 6.5,
        "title": "Shinobi no Mono",
        "popularity": 2.231007,
        "poster_path": "/fcH11zHrv3pqvx86UpVnDtggTaR.jpg",
        "original_language": "ja",
        "original_title": "Shinobi no Mono",
        "genre_ids": [
          28,
          10769
        ],
        "backdrop_path": "/vVrJSURMpfSDelHhH5XhKfeGcPA.jpg",
        "adult": false,
        "overview": "",
        "release_date": "1962-12-01"
      },
      {
        "vote_count": 49,
        "id": 25678,
        "video": false,
        "vote_average": 4.9,
        "title": "American Ninja 2: A Volta do Guerreiro Americano",
        "popularity": 5.515548,
        "poster_path": "/qZT15rkBfTz1kSgoesSInVm7TXH.jpg",
        "original_language": "en",
        "original_title": "American Ninja 2: The Confrontation",
        "genre_ids": [
          28,
          12,
          18
        ],
        "backdrop_path": "/cGVvEiAmZwa1aeyNRSNTN3GvrG8.jpg",
        "adult": false,
        "overview": "Fuzileiros americanos, que desaparecem numa base do Caribe, são levados por traficantes, que praticam lavagem cerebral e transformam os reféns em ninjas. Só um agente muito especial poderá enfrentar a ameaça.",
        "release_date": "1987-05-01"
      },
      {
        "vote_count": 7,
        "id": 52970,
        "video": false,
        "vote_average": 5.8,
        "title": "伊賀忍法帖",
        "popularity": 2.209407,
        "poster_path": "/w9nUwux11p8AeEnWKcFGz8tmmHp.jpg",
        "original_language": "ja",
        "original_title": "伊賀忍法帖",
        "genre_ids": [
          18,
          28
        ],
        "backdrop_path": "/tYa3lP3ZvqZHTRfMU09oAmXh3dQ.jpg",
        "adult": false,
        "overview": "",
        "release_date": "1982-12-18"
      }
    ]
  }